{
    "name": "yenmoc@master-memory",
    "references": [
        "GUID:84c084da16d197b4384770c9ae8eabbe"
    ],
    "includePlatforms": [],
    "excludePlatforms": [],
    "allowUnsafeCode": false,
    "overrideReferences": false,
    "precompiledReferences": [],
    "autoReferenced": true,
    "defineConstraints": [],
    "versionDefines": [],
    "noEngineReferences": false
}